…
Resources have 8688 parsing failures of 7170289 rows with 5 variables


To see the parsing failures
```{r}
problem <- problems(Resources)
```

```{r}
problem
```
# A tibble: 8,688 x 5
     row col                expected           actual file               
   <int> <chr>              <chr>              <chr>  <chr>              
 1  1171 Resource Item Name delimiter or quote d      'Resources.csv.zip'
 2  3431 Resource Item Name delimiter or quote s      'Resources.csv.zip'
 3  5197 Resource Item Name delimiter or quote l      'Resources.csv.zip'
 4  5226 Resource Item Name delimiter or quote j      'Resources.csv.zip'
 5  6487 Resource Item Name delimiter or quote k      'Resources.csv.zip'
 6  6487 Resource Item Name delimiter or quote k      'Resources.csv.zip'
 7  6487 Resource Item Name delimiter or quote g      'Resources.csv.zip'
 8  7524 Resource Item Name delimiter or quote t      'Resources.csv.zip'
 9  8873 Resource Item Name delimiter or quote k      'Resources.csv.zip'
10  8873 Resource Item Name delimiter or quote f      'Resources.csv.zip'
# ... with 8,678 more rows
…
